"BaseThick","FinThick","FinHeight","BaseMaterial","FinMaterial","FanType","MeanTemp"
2.6,4.2,20,"Silver","Silver","Exhaust",106.821
2.2,3.2,28,"Silver","Silver","Exhaust",79.4321
2.4,4,18,"Silver","Silver","Exhaust",113.88
3,3.8,30,"Silver","Silver","Exhaust",75.4531
2.2,4.8,26,"Silver","Silver","Exhaust",87.3282
2.8,4,22,"Silver","Silver","Exhaust",105.868
2.6,3.4,22,"Silver","Silver","Exhaust",92.1196
2.8,4.8,24,"Silver","Silver","Exhaust",97.7398
2.6,4.4,28,"Silver","Silver","Exhaust",84.5211
2.4,4.4,20,"Silver","Silver","Exhaust",106.09
2.2,5,34,"Silver","Silver","Exhaust",72.545
2.8,3.4,32,"Silver","Silver","Exhaust",71.7638
3,4.4,34,"Silver","Silver","Exhaust",76.984
2.8,3.4,16,"Silver","Silver","Exhaust",113.774
3,4.6,18,"Silver","Silver","Exhaust",119.946
2.2,3.6,30,"Silver","Silver","Exhaust",73.459
2.6,4.2,20,"Silver","Silver","Intake",104.839
2.2,3.2,28,"Silver","Silver","Intake",78.2605
2.4,4,18,"Silver","Silver","Intake",112.23
3,3.8,30,"Silver","Silver","Intake",74.137
2.2,4.8,26,"Silver","Silver","Intake",85.3723
2.8,4,22,"Silver","Silver","Intake",105.711
2.6,3.4,22,"Silver","Silver","Intake",90.2916
2.8,4.8,24,"Silver","Silver","Intake",95.819
2.6,4.4,28,"Silver","Silver","Intake",82.9519
2.4,4.4,20,"Silver","Silver","Intake",103.907
2.2,5,34,"Silver","Silver","Intake",71.2156
2.8,3.4,32,"Silver","Silver","Intake",70.4488
3,4.4,34,"Silver","Silver","Intake",76.7627
2.8,3.4,16,"Silver","Silver","Intake",111.336
3,4.6,18,"Silver","Silver","Intake",118.753
2.2,3.6,30,"Silver","Silver","Intake",72.1396
2.6,4.2,20,"Silver","Brass","Exhaust",106.862
2.2,3.2,28,"Silver","Brass","Exhaust",79.5055
2.4,4,18,"Silver","Brass","Exhaust",113.918
3,3.8,30,"Silver","Brass","Exhaust",75.5232
2.2,4.8,26,"Silver","Brass","Exhaust",87.3769
2.8,4,22,"Silver","Brass","Exhaust",105.913
2.6,3.4,22,"Silver","Brass","Exhaust",92.1752
2.8,4.8,24,"Silver","Brass","Exhaust",97.7845
2.6,4.4,28,"Silver","Brass","Exhaust",84.5777
2.4,4.4,20,"Silver","Brass","Exhaust",106.13
2.2,5,34,"Silver","Brass","Exhaust",72.6074
2.8,3.4,32,"Silver","Brass","Exhaust",71.8451
3,4.4,34,"Silver","Brass","Exhaust",77.0515
2.8,3.4,16,"Silver","Brass","Exhaust",113.814
3,4.6,18,"Silver","Brass","Exhaust",119.98
2.2,3.6,30,"Silver","Brass","Exhaust",73.5326
2.6,4.2,20,"Silver","Brass","Intake",104.884
2.2,3.2,28,"Silver","Brass","Intake",78.3347
2.4,4,18,"Silver","Brass","Intake",112.272
3,3.8,30,"Silver","Brass","Intake",74.2077
2.2,4.8,26,"Silver","Brass","Intake",85.4243
2.8,4,22,"Silver","Brass","Intake",105.761
2.6,3.4,22,"Silver","Brass","Intake",90.3474
2.8,4.8,24,"Silver","Brass","Intake",95.8665
2.6,4.4,28,"Silver","Brass","Intake",83.0113
2.4,4.4,20,"Silver","Brass","Intake",103.95
2.2,5,34,"Silver","Brass","Intake",71.2806
2.8,3.4,32,"Silver","Brass","Intake",70.53
3,4.4,34,"Silver","Brass","Intake",76.8328
2.8,3.4,16,"Silver","Brass","Intake",111.376
3,4.6,18,"Silver","Brass","Intake",118.79
2.2,3.6,30,"Silver","Brass","Intake",72.2137
2.6,4.2,20,"Silver","Aluminum","Exhaust",107.731
2.2,3.2,28,"Silver","Aluminum","Exhaust",81.0414
2.4,4,18,"Silver","Aluminum","Exhaust",114.72
3,3.8,30,"Silver","Aluminum","Exhaust",76.9901
2.2,4.8,26,"Silver","Aluminum","Exhaust",88.4081
2.8,4,22,"Silver","Aluminum","Exhaust",106.886
2.6,3.4,22,"Silver","Aluminum","Exhaust",93.3416
2.8,4.8,24,"Silver","Aluminum","Exhaust",98.7296
2.6,4.4,28,"Silver","Aluminum","Exhaust",85.7658
2.4,4.4,20,"Silver","Aluminum","Exhaust",106.971
2.2,5,34,"Silver","Aluminum","Exhaust",73.9151
2.8,3.4,32,"Silver","Aluminum","Exhaust",73.5429
3,4.4,34,"Silver","Aluminum","Exhaust",78.4692
2.8,3.4,16,"Silver","Aluminum","Exhaust",114.657
3,4.6,18,"Silver","Aluminum","Exhaust",120.704
2.2,3.6,30,"Silver","Aluminum","Exhaust",75.0742
2.6,4.2,20,"Silver","Aluminum","Intake",105.815
2.2,3.2,28,"Silver","Aluminum","Intake",79.8905
2.4,4,18,"Silver","Aluminum","Intake",113.144
3,3.8,30,"Silver","Aluminum","Intake",75.687
2.2,4.8,26,"Silver","Aluminum","Intake",86.5149
2.8,4,22,"Silver","Aluminum","Intake",106.812
2.6,3.4,22,"Silver","Aluminum","Intake",91.5218
2.8,4.8,24,"Silver","Aluminum","Intake",96.8668
2.6,4.4,28,"Silver","Aluminum","Intake",84.2594
2.4,4.4,20,"Silver","Aluminum","Intake",104.853
2.2,5,34,"Silver","Aluminum","Intake",72.6407
2.8,3.4,32,"Silver","Aluminum","Intake",72.2274
3,4.4,34,"Silver","Aluminum","Intake",78.3037
2.8,3.4,16,"Silver","Aluminum","Intake",112.223
3,4.6,18,"Silver","Aluminum","Intake",119.573
2.2,3.6,30,"Silver","Aluminum","Intake",73.7624
2.6,4.2,20,"Silver","Steel","Exhaust",111.933
2.2,3.2,28,"Silver","Steel","Exhaust",88.2621
2.4,4,18,"Silver","Steel","Exhaust",118.605
3,3.8,30,"Silver","Steel","Exhaust",83.8821
2.2,4.8,26,"Silver","Steel","Exhaust",93.3593
2.8,4,22,"Silver","Steel","Exhaust",111.595
2.6,3.4,22,"Silver","Steel","Exhaust",98.91
2.8,4.8,24,"Silver","Steel","Exhaust",103.307
2.6,4.4,28,"Silver","Steel","Exhaust",91.4452
2.4,4.4,20,"Silver","Steel","Exhaust",111.041
2.2,5,34,"Silver","Steel","Exhaust",80.1113
2.8,3.4,32,"Silver","Steel","Exhaust",81.4521
3,4.4,34,"Silver","Steel","Exhaust",85.192
2.8,3.4,16,"Silver","Steel","Exhaust",118.721
3,4.6,18,"Silver","Steel","Exhaust",124.233
2.2,3.6,30,"Silver","Steel","Exhaust",82.2954
2.6,4.2,20,"Silver","Steel","Intake",110.323
2.2,3.2,28,"Silver","Steel","Intake",87.2143
2.4,4,18,"Silver","Steel","Intake",117.375
3,3.8,30,"Silver","Steel","Intake",82.6656
2.2,4.8,26,"Silver","Steel","Intake",91.7589
2.8,4,22,"Silver","Steel","Intake",111.892
2.6,3.4,22,"Silver","Steel","Intake",97.1453
2.8,4.8,24,"Silver","Steel","Intake",101.711
2.6,4.4,28,"Silver","Steel","Intake",90.2243
2.4,4.4,20,"Silver","Steel","Intake",109.23
2.2,5,34,"Silver","Steel","Intake",79.0896
2.8,3.4,32,"Silver","Steel","Intake",80.1432
3,4.4,34,"Silver","Steel","Intake",85.275
2.8,3.4,16,"Silver","Steel","Intake",116.329
3,4.6,18,"Silver","Steel","Intake",123.389
2.2,3.6,30,"Silver","Steel","Intake",81.039
2.6,4.2,20,"Brass","Silver","Exhaust",106.838
2.2,3.2,28,"Brass","Silver","Exhaust",79.4696
2.4,4,18,"Brass","Silver","Exhaust",113.897
3,3.8,30,"Brass","Silver","Exhaust",75.4722
2.2,4.8,26,"Brass","Silver","Exhaust",87.3438
2.8,4,22,"Brass","Silver","Exhaust",105.877
2.6,3.4,22,"Brass","Silver","Exhaust",92.1566
2.8,4.8,24,"Brass","Silver","Exhaust",97.7467
2.6,4.4,28,"Brass","Silver","Exhaust",84.5382
2.4,4.4,20,"Brass","Silver","Exhaust",106.106
2.2,5,34,"Brass","Silver","Exhaust",72.5626
2.8,3.4,32,"Brass","Silver","Exhaust",71.7993
3,4.4,34,"Brass","Silver","Exhaust",76.9944
2.8,3.4,16,"Brass","Silver","Exhaust",113.81
3,4.6,18,"Brass","Silver","Exhaust",119.956
2.2,3.6,30,"Brass","Silver","Exhaust",73.4979
2.6,4.2,20,"Brass","Silver","Intake",104.853
2.2,3.2,28,"Brass","Silver","Intake",78.2917
2.4,4,18,"Brass","Silver","Intake",112.244
3,3.8,30,"Brass","Silver","Intake",74.1532
2.2,4.8,26,"Brass","Silver","Intake",85.3856
2.8,4,22,"Brass","Silver","Intake",105.72
2.6,3.4,22,"Brass","Silver","Intake",90.3217
2.8,4.8,24,"Brass","Silver","Intake",95.8257
2.6,4.4,28,"Brass","Silver","Intake",82.9663
2.4,4.4,20,"Brass","Silver","Intake",103.92
2.2,5,34,"Brass","Silver","Intake",71.2306
2.8,3.4,32,"Brass","Silver","Intake",70.4789
3,4.4,34,"Brass","Silver","Intake",76.7723
2.8,3.4,16,"Brass","Silver","Intake",111.364
3,4.6,18,"Brass","Silver","Intake",118.762
2.2,3.6,30,"Brass","Silver","Intake",72.1718
2.6,4.2,20,"Brass","Brass","Exhaust",106.879
2.2,3.2,28,"Brass","Brass","Exhaust",79.543
2.4,4,18,"Brass","Brass","Exhaust",113.935
3,3.8,30,"Brass","Brass","Exhaust",75.5423
2.2,4.8,26,"Brass","Brass","Exhaust",87.3929
2.8,4,22,"Brass","Brass","Exhaust",105.924
2.6,3.4,22,"Brass","Brass","Exhaust",92.2122
2.8,4.8,24,"Brass","Brass","Exhaust",97.7916
2.6,4.4,28,"Brass","Brass","Exhaust",84.5947
2.4,4.4,20,"Brass","Brass","Exhaust",106.146
2.2,5,34,"Brass","Brass","Exhaust",72.625
2.8,3.4,32,"Brass","Brass","Exhaust",71.8806
3,4.4,34,"Brass","Brass","Exhaust",77.0619
2.8,3.4,16,"Brass","Brass","Exhaust",113.85
3,4.6,18,"Brass","Brass","Exhaust",119.99
2.2,3.6,30,"Brass","Brass","Exhaust",73.5717
2.6,4.2,20,"Brass","Brass","Intake",104.897
2.2,3.2,28,"Brass","Brass","Intake",78.3657
2.4,4,18,"Brass","Brass","Intake",112.285
3,3.8,30,"Brass","Brass","Intake",74.2238
2.2,4.8,26,"Brass","Brass","Intake",85.4375
2.8,4,22,"Brass","Brass","Intake",105.77
2.6,3.4,22,"Brass","Brass","Intake",90.3776
2.8,4.8,24,"Brass","Brass","Intake",95.8731
2.6,4.4,28,"Brass","Brass","Intake",83.0258
2.4,4.4,20,"Brass","Brass","Intake",103.963
2.2,5,34,"Brass","Brass","Intake",71.2957
2.8,3.4,32,"Brass","Brass","Intake",70.5601
3,4.4,34,"Brass","Brass","Intake",76.8424
2.8,3.4,16,"Brass","Brass","Intake",111.404
3,4.6,18,"Brass","Brass","Intake",118.799
2.2,3.6,30,"Brass","Brass","Intake",72.2458
2.6,4.2,20,"Brass","Aluminum","Exhaust",107.748
2.2,3.2,28,"Brass","Aluminum","Exhaust",81.079
2.4,4,18,"Brass","Aluminum","Exhaust",114.737
3,3.8,30,"Brass","Aluminum","Exhaust",77.0091
2.2,4.8,26,"Brass","Aluminum","Exhaust",88.4234
2.8,4,22,"Brass","Aluminum","Exhaust",106.896
2.6,3.4,22,"Brass","Aluminum","Exhaust",93.3786
2.8,4.8,24,"Brass","Aluminum","Exhaust",98.7364
2.6,4.4,28,"Brass","Aluminum","Exhaust",85.7829
2.4,4.4,20,"Brass","Aluminum","Exhaust",106.987
2.2,5,34,"Brass","Aluminum","Exhaust",73.9329
2.8,3.4,32,"Brass","Aluminum","Exhaust",73.5784
3,4.4,34,"Brass","Aluminum","Exhaust",78.4795
2.8,3.4,16,"Brass","Aluminum","Exhaust",114.693
3,4.6,18,"Brass","Aluminum","Exhaust",120.714
2.2,3.6,30,"Brass","Aluminum","Exhaust",75.1131
2.6,4.2,20,"Brass","Aluminum","Intake",105.828
2.2,3.2,28,"Brass","Aluminum","Intake",79.9214
2.4,4,18,"Brass","Aluminum","Intake",113.157
3,3.8,30,"Brass","Aluminum","Intake",75.7031
2.2,4.8,26,"Brass","Aluminum","Intake",86.5286
2.8,4,22,"Brass","Aluminum","Intake",106.821
2.6,3.4,22,"Brass","Aluminum","Intake",91.5519
2.8,4.8,24,"Brass","Aluminum","Intake",96.8732
2.6,4.4,28,"Brass","Aluminum","Intake",84.2739
2.4,4.4,20,"Brass","Aluminum","Intake",104.866
2.2,5,34,"Brass","Aluminum","Intake",72.6561
2.8,3.4,32,"Brass","Aluminum","Intake",72.2575
3,4.4,34,"Brass","Aluminum","Intake",78.3131
2.8,3.4,16,"Brass","Aluminum","Intake",112.251
3,4.6,18,"Brass","Aluminum","Intake",119.581
2.2,3.6,30,"Brass","Aluminum","Intake",73.7945
2.6,4.2,20,"Brass","Steel","Exhaust",111.95
2.2,3.2,28,"Brass","Steel","Exhaust",88.2993
2.4,4,18,"Brass","Steel","Exhaust",118.623
3,3.8,30,"Brass","Steel","Exhaust",83.9004
2.2,4.8,26,"Brass","Steel","Exhaust",93.3754
2.8,4,22,"Brass","Steel","Exhaust",111.604
2.6,3.4,22,"Brass","Steel","Exhaust",98.9467
2.8,4.8,24,"Brass","Steel","Exhaust",103.314
2.6,4.4,28,"Brass","Steel","Exhaust",91.4625
2.4,4.4,20,"Brass","Steel","Exhaust",111.058
2.2,5,34,"Brass","Steel","Exhaust",80.1296
2.8,3.4,32,"Brass","Steel","Exhaust",81.4869
3,4.4,34,"Brass","Steel","Exhaust",85.2021
2.8,3.4,16,"Brass","Steel","Exhaust",118.757
3,4.6,18,"Brass","Steel","Exhaust",124.243
2.2,3.6,30,"Brass","Steel","Exhaust",82.3335
2.6,4.2,20,"Brass","Steel","Intake",110.337
2.2,3.2,28,"Brass","Steel","Intake",87.2448
2.4,4,18,"Brass","Steel","Intake",117.388
3,3.8,30,"Brass","Steel","Intake",82.681
2.2,4.8,26,"Brass","Steel","Intake",91.7721
2.8,4,22,"Brass","Steel","Intake",111.9
2.6,3.4,22,"Brass","Steel","Intake",97.1748
2.8,4.8,24,"Brass","Steel","Intake",101.717
2.6,4.4,28,"Brass","Steel","Intake",90.2387
2.4,4.4,20,"Brass","Steel","Intake",109.243
2.2,5,34,"Brass","Steel","Intake",79.1051
2.8,3.4,32,"Brass","Steel","Intake",80.1726
3,4.4,34,"Brass","Steel","Intake",85.284
2.8,3.4,16,"Brass","Steel","Intake",116.357
3,4.6,18,"Brass","Steel","Intake",123.397
2.2,3.6,30,"Brass","Steel","Intake",81.0704
2.6,4.2,20,"Aluminum","Silver","Exhaust",107.194
2.2,3.2,28,"Aluminum","Silver","Exhaust",80.2447
2.4,4,18,"Aluminum","Silver","Exhaust",114.257
3,3.8,30,"Aluminum","Silver","Exhaust",75.8727
2.2,4.8,26,"Aluminum","Silver","Exhaust",87.6689
2.8,4,22,"Aluminum","Silver","Exhaust",106.084
2.6,3.4,22,"Aluminum","Silver","Exhaust",92.9264
2.8,4.8,24,"Aluminum","Silver","Exhaust",97.895
2.6,4.4,28,"Aluminum","Silver","Exhaust",84.8951
2.4,4.4,20,"Aluminum","Silver","Exhaust",106.449
2.2,5,34,"Aluminum","Silver","Exhaust",72.9272
2.8,3.4,32,"Aluminum","Silver","Exhaust",72.5361
3,4.4,34,"Aluminum","Silver","Exhaust",77.2161
2.8,3.4,16,"Aluminum","Silver","Exhaust",114.558
3,4.6,18,"Aluminum","Silver","Exhaust",120.159
2.2,3.6,30,"Aluminum","Silver","Exhaust",74.2996
2.6,4.2,20,"Aluminum","Silver","Intake",105.14
2.2,3.2,28,"Aluminum","Silver","Intake",78.9332
2.4,4,18,"Aluminum","Silver","Intake",112.522
3,3.8,30,"Aluminum","Silver","Intake",74.4944
2.2,4.8,26,"Aluminum","Silver","Intake",85.6652
2.8,4,22,"Aluminum","Silver","Intake",105.907
2.6,3.4,22,"Aluminum","Silver","Intake",90.9517
2.8,4.8,24,"Aluminum","Silver","Intake",95.9677
2.6,4.4,28,"Aluminum","Silver","Intake",83.2714
2.4,4.4,20,"Aluminum","Silver","Intake",104.196
2.2,5,34,"Aluminum","Silver","Intake",71.5472
2.8,3.4,32,"Aluminum","Silver","Intake",71.107
3,4.4,34,"Aluminum","Silver","Intake",76.9778
2.8,3.4,16,"Aluminum","Silver","Intake",111.958
3,4.6,18,"Aluminum","Silver","Intake",118.946
2.2,3.6,30,"Aluminum","Silver","Intake",72.8381
2.6,4.2,20,"Aluminum","Brass","Exhaust",107.236
2.2,3.2,28,"Aluminum","Brass","Exhaust",80.3181
2.4,4,18,"Aluminum","Brass","Exhaust",114.295
3,3.8,30,"Aluminum","Brass","Exhaust",75.9427
2.2,4.8,26,"Aluminum","Brass","Exhaust",87.7182
2.8,4,22,"Aluminum","Brass","Exhaust",106.13
2.6,3.4,22,"Aluminum","Brass","Exhaust",92.982
2.8,4.8,24,"Aluminum","Brass","Exhaust",97.94
2.6,4.4,28,"Aluminum","Brass","Exhaust",84.9518
2.4,4.4,20,"Aluminum","Brass","Exhaust",106.489
2.2,5,34,"Aluminum","Brass","Exhaust",72.9899
2.8,3.4,32,"Aluminum","Brass","Exhaust",72.6173
3,4.4,34,"Aluminum","Brass","Exhaust",77.2835
2.8,3.4,16,"Aluminum","Brass","Exhaust",114.598
3,4.6,18,"Aluminum","Brass","Exhaust",120.193
2.2,3.6,30,"Aluminum","Brass","Exhaust",74.3733
2.6,4.2,20,"Aluminum","Brass","Intake",105.184
2.2,3.2,28,"Aluminum","Brass","Intake",79.0074
2.4,4,18,"Aluminum","Brass","Intake",112.564
3,3.8,30,"Aluminum","Brass","Intake",74.5649
2.2,4.8,26,"Aluminum","Brass","Intake",85.7172
2.8,4,22,"Aluminum","Brass","Intake",105.957
2.6,3.4,22,"Aluminum","Brass","Intake",91.0075
2.8,4.8,24,"Aluminum","Brass","Intake",96.015
2.6,4.4,28,"Aluminum","Brass","Intake",83.3308
2.4,4.4,20,"Aluminum","Brass","Intake",104.238
2.2,5,34,"Aluminum","Brass","Intake",71.6123
2.8,3.4,32,"Aluminum","Brass","Intake",71.1881
3,4.4,34,"Aluminum","Brass","Intake",77.0477
2.8,3.4,16,"Aluminum","Brass","Intake",111.998
3,4.6,18,"Aluminum","Brass","Intake",118.983
2.2,3.6,30,"Aluminum","Brass","Intake",72.9121
2.6,4.2,20,"Aluminum","Aluminum","Exhaust",108.107
2.2,3.2,28,"Aluminum","Aluminum","Exhaust",81.8547
2.4,4,18,"Aluminum","Aluminum","Exhaust",115.099
3,3.8,30,"Aluminum","Aluminum","Exhaust",77.4073
2.2,4.8,26,"Aluminum","Aluminum","Exhaust",88.7532
2.8,4,22,"Aluminum","Aluminum","Exhaust",107.101
2.6,3.4,22,"Aluminum","Aluminum","Exhaust",94.1486
2.8,4.8,24,"Aluminum","Aluminum","Exhaust",98.8825
2.6,4.4,28,"Aluminum","Aluminum","Exhaust",86.1421
2.4,4.4,20,"Aluminum","Aluminum","Exhaust",107.333
2.2,5,34,"Aluminum","Aluminum","Exhaust",74.3021
2.8,3.4,32,"Aluminum","Aluminum","Exhaust",74.3133
3,4.4,34,"Aluminum","Aluminum","Exhaust",78.6989
2.8,3.4,16,"Aluminum","Aluminum","Exhaust",115.443
3,4.6,18,"Aluminum","Aluminum","Exhaust",120.916
2.2,3.6,30,"Aluminum","Aluminum","Exhaust",75.9142
2.6,4.2,20,"Aluminum","Aluminum","Intake",106.115
2.2,3.2,28,"Aluminum","Aluminum","Intake",80.5624
2.4,4,18,"Aluminum","Aluminum","Intake",113.435
3,3.8,30,"Aluminum","Aluminum","Intake",76.0416
2.2,4.8,26,"Aluminum","Aluminum","Intake",86.8079
2.8,4,22,"Aluminum","Aluminum","Intake",107.005
2.6,3.4,22,"Aluminum","Aluminum","Intake",92.1797
2.8,4.8,24,"Aluminum","Aluminum","Intake",97.0117
2.6,4.4,28,"Aluminum","Aluminum","Intake",84.5787
2.4,4.4,20,"Aluminum","Aluminum","Intake",105.141
2.2,5,34,"Aluminum","Aluminum","Intake",72.9755
2.8,3.4,32,"Aluminum","Aluminum","Intake",72.8834
3,4.4,34,"Aluminum","Aluminum","Intake",78.5152
2.8,3.4,16,"Aluminum","Aluminum","Intake",112.844
3,4.6,18,"Aluminum","Aluminum","Intake",119.763
2.2,3.6,30,"Aluminum","Aluminum","Intake",74.459
2.6,4.2,20,"Aluminum","Steel","Exhaust",112.313
2.2,3.2,28,"Aluminum","Steel","Exhaust",89.0697
2.4,4,18,"Aluminum","Steel","Exhaust",118.989
3,3.8,30,"Aluminum","Steel","Exhaust",84.2836
2.2,4.8,26,"Aluminum","Steel","Exhaust",93.7118
2.8,4,22,"Aluminum","Steel","Exhaust",111.803
2.6,3.4,22,"Aluminum","Steel","Exhaust",99.7092
2.8,4.8,24,"Aluminum","Steel","Exhaust",103.453
2.6,4.4,28,"Aluminum","Steel","Exhaust",91.8254
2.4,4.4,20,"Aluminum","Steel","Exhaust",111.41
2.2,5,34,"Aluminum","Steel","Exhaust",80.5083
2.8,3.4,32,"Aluminum","Steel","Exhaust",82.2093
3,4.4,34,"Aluminum","Steel","Exhaust",85.4154
2.8,3.4,16,"Aluminum","Steel","Exhaust",119.506
3,4.6,18,"Aluminum","Steel","Exhaust",124.442
2.2,3.6,30,"Aluminum","Steel","Exhaust",83.1212
2.6,4.2,20,"Aluminum","Steel","Intake",110.621
2.2,3.2,28,"Aluminum","Steel","Intake",87.8786
2.4,4,18,"Aluminum","Steel","Intake",117.662
3,3.8,30,"Aluminum","Steel","Intake",83.0061
2.2,4.8,26,"Aluminum","Steel","Intake",92.0506
2.8,4,22,"Aluminum","Steel","Intake",112.076
2.6,3.4,22,"Aluminum","Steel","Intake",97.7921
2.8,4.8,24,"Aluminum","Steel","Intake",101.846
2.6,4.4,28,"Aluminum","Steel","Intake",90.5423
2.4,4.4,20,"Aluminum","Steel","Intake",109.516
2.2,5,34,"Aluminum","Steel","Intake",79.4294
2.8,3.4,32,"Aluminum","Steel","Intake",80.7875
3,4.4,34,"Aluminum","Steel","Intake",85.4772
2.8,3.4,16,"Aluminum","Steel","Intake",116.943
3,4.6,18,"Aluminum","Steel","Intake",123.573
2.2,3.6,30,"Aluminum","Steel","Intake",81.7222
2.6,4.2,20,"Steel","Silver","Exhaust",108.907
2.2,3.2,28,"Steel","Silver","Exhaust",83.7113
2.4,4,18,"Steel","Silver","Exhaust",115.98
3,3.8,30,"Steel","Silver","Exhaust",77.7925
2.2,4.8,26,"Steel","Silver","Exhaust",89.2226
2.8,4,22,"Steel","Silver","Exhaust",107.117
2.6,3.4,22,"Steel","Silver","Exhaust",96.4538
2.8,4.8,24,"Steel","Silver","Exhaust",98.6553
2.6,4.4,28,"Steel","Silver","Exhaust",86.6002
2.4,4.4,20,"Steel","Silver","Exhaust",108.094
2.2,5,34,"Steel","Silver","Exhaust",74.6195
2.8,3.4,32,"Steel","Silver","Exhaust",75.8777
3,4.4,34,"Steel","Silver","Exhaust",78.329
2.8,3.4,16,"Steel","Silver","Exhaust",118.051
3,4.6,18,"Steel","Silver","Exhaust",121.171
2.2,3.6,30,"Steel","Silver","Exhaust",77.8334
2.6,4.2,20,"Steel","Silver","Intake",106.548
2.2,3.2,28,"Steel","Silver","Intake",81.859
2.4,4,18,"Steel","Silver","Intake",113.892
3,3.8,30,"Steel","Silver","Intake",76.166
2.2,4.8,26,"Steel","Silver","Intake",87.0122
2.8,4,22,"Steel","Silver","Intake",106.856
2.6,3.4,22,"Steel","Silver","Intake",93.8807
2.8,4.8,24,"Steel","Silver","Intake",96.7015
2.6,4.4,28,"Steel","Silver","Intake",84.7552
2.4,4.4,20,"Steel","Silver","Intake",105.545
2.2,5,34,"Steel","Silver","Intake",73.0458
2.8,3.4,32,"Steel","Silver","Intake",73.9985
3,4.4,34,"Steel","Silver","Intake",78.0201
2.8,3.4,16,"Steel","Silver","Intake",114.769
3,4.6,18,"Steel","Silver","Intake",119.876
2.2,3.6,30,"Steel","Silver","Intake",75.828
2.6,4.2,20,"Steel","Brass","Exhaust",108.949
2.2,3.2,28,"Steel","Brass","Exhaust",83.7846
2.4,4,18,"Steel","Brass","Exhaust",116.018
3,3.8,30,"Steel","Brass","Exhaust",77.8617
2.2,4.8,26,"Steel","Brass","Exhaust",89.2721
2.8,4,22,"Steel","Brass","Exhaust",107.163
2.6,3.4,22,"Steel","Brass","Exhaust",96.5089
2.8,4.8,24,"Steel","Brass","Exhaust",98.6999
2.6,4.4,28,"Steel","Brass","Exhaust",86.6571
2.4,4.4,20,"Steel","Brass","Exhaust",108.134
2.2,5,34,"Steel","Brass","Exhaust",74.6824
2.8,3.4,32,"Steel","Brass","Exhaust",75.9583
3,4.4,34,"Steel","Brass","Exhaust",78.3962
2.8,3.4,16,"Steel","Brass","Exhaust",118.091
3,4.6,18,"Steel","Brass","Exhaust",121.205
2.2,3.6,30,"Steel","Brass","Exhaust",77.9065
2.6,4.2,20,"Steel","Brass","Intake",106.592
2.2,3.2,28,"Steel","Brass","Intake",81.9331
2.4,4,18,"Steel","Brass","Intake",113.933
3,3.8,30,"Steel","Brass","Intake",76.2359
2.2,4.8,26,"Steel","Brass","Intake",87.0642
2.8,4,22,"Steel","Brass","Intake",106.905
2.6,3.4,22,"Steel","Brass","Intake",93.936
2.8,4.8,24,"Steel","Brass","Intake",96.7485
2.6,4.4,28,"Steel","Brass","Intake",84.8147
2.4,4.4,20,"Steel","Brass","Intake",105.588
2.2,5,34,"Steel","Brass","Intake",73.1111
2.8,3.4,32,"Steel","Brass","Intake",74.0792
3,4.4,34,"Steel","Brass","Intake",78.0896
2.8,3.4,16,"Steel","Brass","Intake",114.809
3,4.6,18,"Steel","Brass","Intake",119.912
2.2,3.6,30,"Steel","Brass","Intake",75.9016
2.6,4.2,20,"Steel","Aluminum","Exhaust",109.823
2.2,3.2,28,"Steel","Aluminum","Exhaust",85.3175
2.4,4,18,"Steel","Aluminum","Exhaust",116.826
3,3.8,30,"Steel","Aluminum","Exhaust",79.31
2.2,4.8,26,"Steel","Aluminum","Exhaust",90.3116
2.8,4,22,"Steel","Aluminum","Exhaust",108.13
2.6,3.4,22,"Steel","Aluminum","Exhaust",97.6672
2.8,4.8,24,"Steel","Aluminum","Exhaust",99.6378
2.6,4.4,28,"Steel","Aluminum","Exhaust",87.8503
2.4,4.4,20,"Steel","Aluminum","Exhaust",108.982
2.2,5,34,"Steel","Aluminum","Exhaust",76.0023
2.8,3.4,32,"Steel","Aluminum","Exhaust",77.6435
3,4.4,34,"Steel","Aluminum","Exhaust",79.8055
2.8,3.4,16,"Steel","Aluminum","Exhaust",118.932
3,4.6,18,"Steel","Aluminum","Exhaust",121.925
2.2,3.6,30,"Steel","Aluminum","Exhaust",79.4354
2.6,4.2,20,"Steel","Aluminum","Intake",107.523
2.2,3.2,28,"Steel","Aluminum","Intake",83.485
2.4,4,18,"Steel","Aluminum","Intake",114.803
3,3.8,30,"Steel","Aluminum","Intake",77.7004
2.2,4.8,26,"Steel","Aluminum","Intake",88.1572
2.8,4,22,"Steel","Aluminum","Intake",107.946
2.6,3.4,22,"Steel","Aluminum","Intake",95.0997
2.8,4.8,24,"Steel","Aluminum","Intake",97.7388
2.6,4.4,28,"Steel","Aluminum","Intake",86.0629
2.4,4.4,20,"Steel","Aluminum","Intake",106.491
2.2,5,34,"Steel","Aluminum","Intake",74.48
2.8,3.4,32,"Steel","Aluminum","Intake",75.7674
3,4.4,34,"Steel","Aluminum","Intake",79.5493
2.8,3.4,16,"Steel","Aluminum","Intake",115.648
3,4.6,18,"Steel","Aluminum","Intake",120.688
2.2,3.6,30,"Steel","Aluminum","Intake",77.4411
2.6,4.2,20,"Steel","Steel","Exhaust",114.042
2.2,3.2,28,"Steel","Steel","Exhaust",92.5208
2.4,4,18,"Steel","Steel","Exhaust",120.729
3,3.8,30,"Steel","Steel","Exhaust",86.1185
2.2,4.8,26,"Steel","Steel","Exhaust",95.2926
2.8,4,22,"Steel","Steel","Exhaust",112.812
2.6,3.4,22,"Steel","Steel","Exhaust",103.195
2.8,4.8,24,"Steel","Steel","Exhaust",104.187
2.6,4.4,28,"Steel","Steel","Exhaust",93.5458
2.4,4.4,20,"Steel","Steel","Exhaust",113.075
2.2,5,34,"Steel","Steel","Exhaust",82.2429
2.8,3.4,32,"Steel","Steel","Exhaust",85.5009
3,4.4,34,"Steel","Steel","Exhaust",86.4954
2.8,3.4,16,"Steel","Steel","Exhaust",122.98
3,4.6,18,"Steel","Steel","Exhaust",125.441
2.2,3.6,30,"Steel","Steel","Exhaust",86.6023
2.6,4.2,20,"Steel","Steel","Intake",112.023
2.2,3.2,28,"Steel","Steel","Intake",90.7849
2.4,4,18,"Steel","Steel","Intake",119.02
3,3.8,30,"Steel","Steel","Intake",84.6088
2.2,4.8,26,"Steel","Steel","Intake",93.4033
2.8,4,22,"Steel","Steel","Intake",112.984
2.6,3.4,22,"Steel","Steel","Intake",100.674
2.8,4.8,24,"Steel","Steel","Intake",102.54
2.6,4.4,28,"Steel","Steel","Intake",92.0246
2.4,4.4,20,"Steel","Steel","Intake",110.863
2.2,5,34,"Steel","Steel","Intake",80.9567
2.8,3.4,32,"Steel","Steel","Intake",83.639
3,4.4,34,"Steel","Steel","Intake",86.4761
2.8,3.4,16,"Steel","Steel","Intake",119.719
3,4.6,18,"Steel","Steel","Intake",124.477
2.2,3.6,30,"Steel","Steel","Intake",84.6709
